…
Unexpected column count (7) for sac — skipping
Unexpected column count (7) for no — skipping
Unexpected column count (7) for mil — skipping
Unexpected column count (7) for mia — skipping
Unexpected column count (7) for mem — skipping
Unexpected column count (7) for lac — skipping
Unexpected column count (7) for ind — skipping
Unexpected column count (7) for gsw — skipping
Unexpected column count (7) for dal — skipping
Unexpected column count (7) for chi — skipping
Unexpected column count (7) for cha — skipping
Unexpected column count (7) for bkn — skipping
Playoff schedule loaded — 106 rows
Player opponent lookup:
# A tibble: 106 × 22
   TeamID     SEASON LeagueID player  NICKNAME PLAYER_SLUG NUM   POSITION HEIGHT
   <chr>      <chr>  <chr>    <chr>   <chr>    <chr>       <chr> <chr>    <chr> 
 1 1610612743 2025   00       Christ… Christi… christian-… 0     G        6-6   
 2 1610612743 2025   00       Curtis… Curtis   curtis-jon… 1     G        6-3   
 3 1610612743 2025   00       Julian… Julian   julian-str… 3     G        6-6   
 4 1610612743 2025   00       Tyus J… Tyus     tyus-jones  5     G        6-0   
 5 1610612743 2025   00       Peyton… Peyton   peyton-wat… 8     G        6-8   
 6 1610612743 2025   00       Tim Ha… Tim      tim-hardaw… 10    G-F      6-5   
 7 1610612743 2025   00       Bruce … Bruce    bruce-brown 11    G-F      6-4   
 8 1610612743 2025   00       DaRon … DaRon    daron-holm… 14    F        6-9   
 9 1610612743 2025   00       Nikola… Nikola   nikola-jok… 15    C        6-11  
10 1610612743 2025   00       Jonas … Jonas    jonas-vala… 17    C        6-11  
# ℹ 96 more rows
# ℹ 13 more variables: WEIGHT <chr>, BIRTH_DATE <chr>, AGE <chr>, EXP <chr>,
#   SCHOOL <chr>, PLAYER_ID <chr>, HOW_ACQUIRED <chr>, team_id <chr>,
#   team_abbreviation <chr>, opponent_abbrev <chr>, opponent_name.x <chr>,
#   type_label <chr>, opponent_name.y <chr>
…
Unexpected column count (7) for sac — skipping
Unexpected column count (7) for no — skipping
Unexpected column count (7) for mil — skipping
Unexpected column count (7) for mia — skipping
Unexpected column count (7) for mem — skipping
Unexpected column count (7) for lac — skipping
Unexpected column count (7) for ind — skipping
Unexpected column count (7) for gsw — skipping
Unexpected column count (7) for dal — skipping
Unexpected column count (7) for chi — skipping
Unexpected column count (7) for cha — skipping
Unexpected column count (7) for bkn — skipping
Playoff schedule loaded — 106 rows
Player opponent lookup:
# A tibble: 106 × 22
   TeamID     SEASON LeagueID player  NICKNAME PLAYER_SLUG NUM   POSITION HEIGHT
   <chr>      <chr>  <chr>    <chr>   <chr>    <chr>       <chr> <chr>    <chr> 
 1 1610612743 2025   00       Christ… Christi… christian-… 0     G        6-6   
 2 1610612743 2025   00       Curtis… Curtis   curtis-jon… 1     G        6-3   
 3 1610612743 2025   00       Julian… Julian   julian-str… 3     G        6-6   
 4 1610612743 2025   00       Tyus J… Tyus     tyus-jones  5     G        6-0   
 5 1610612743 2025   00       Peyton… Peyton   peyton-wat… 8     G        6-8   
 6 1610612743 2025   00       Tim Ha… Tim      tim-hardaw… 10    G-F      6-5   
 7 1610612743 2025   00       Bruce … Bruce    bruce-brown 11    G-F      6-4   
 8 1610612743 2025   00       DaRon … DaRon    daron-holm… 14    F        6-9   
 9 1610612743 2025   00       Nikola… Nikola   nikola-jok… 15    C        6-11  
10 1610612743 2025   00       Jonas … Jonas    jonas-vala… 17    C        6-11  
# ℹ 96 more rows
# ℹ 13 more variables: WEIGHT <chr>, BIRTH_DATE <chr>, AGE <chr>, EXP <chr>,
#   SCHOOL <chr>, PLAYER_ID <chr>, HOW_ACQUIRED <chr>, team_id <chr>,
#   team_abbreviation <chr>, opponent_abbrev <chr>, opponent_name.x <chr>,
#   type_label <chr>, opponent_name.y <chr>
…
Unexpected column count (7) for sac — skipping
Unexpected column count (7) for no — skipping
Unexpected column count (7) for mil — skipping
Unexpected column count (7) for mia — skipping
Unexpected column count (7) for mem — skipping
Unexpected column count (7) for lac — skipping
Unexpected column count (7) for ind — skipping
Unexpected column count (7) for gsw — skipping
Unexpected column count (7) for dal — skipping
Unexpected column count (7) for chi — skipping
Unexpected column count (7) for cha — skipping
Unexpected column count (7) for bkn — skipping
Playoff schedule loaded — 106 rows
Player opponent lookup:
# A tibble: 106 × 22
   TeamID     SEASON LeagueID player  NICKNAME PLAYER_SLUG NUM   POSITION HEIGHT
   <chr>      <chr>  <chr>    <chr>   <chr>    <chr>       <chr> <chr>    <chr> 
 1 1610612743 2025   00       Christ… Christi… christian-… 0     G        6-6   
 2 1610612743 2025   00       Curtis… Curtis   curtis-jon… 1     G        6-3   
 3 1610612743 2025   00       Julian… Julian   julian-str… 3     G        6-6   
 4 1610612743 2025   00       Tyus J… Tyus     tyus-jones  5     G        6-0   
 5 1610612743 2025   00       Peyton… Peyton   peyton-wat… 8     G        6-8   
 6 1610612743 2025   00       Tim Ha… Tim      tim-hardaw… 10    G-F      6-5   
 7 1610612743 2025   00       Bruce … Bruce    bruce-brown 11    G-F      6-4   
 8 1610612743 2025   00       DaRon … DaRon    daron-holm… 14    F        6-9   
 9 1610612743 2025   00       Nikola… Nikola   nikola-jok… 15    C        6-11  
10 1610612743 2025   00       Jonas … Jonas    jonas-vala… 17    C        6-11  
# ℹ 96 more rows
# ℹ 13 more variables: WEIGHT <chr>, BIRTH_DATE <chr>, AGE <chr>, EXP <chr>,
#   SCHOOL <chr>, PLAYER_ID <chr>, HOW_ACQUIRED <chr>, team_id <chr>,
#   team_abbreviation <chr>, opponent_abbrev <chr>, opponent_name.x <chr>,
#   type_label <chr>, opponent_name.y <chr>
…
Unexpected column count (7) for sac — skipping
Unexpected column count (7) for no — skipping
Unexpected column count (7) for mil — skipping
Unexpected column count (7) for mia — skipping
Unexpected column count (7) for mem — skipping
Unexpected column count (7) for lac — skipping
Unexpected column count (7) for ind — skipping
Unexpected column count (7) for gsw — skipping
Unexpected column count (7) for dal — skipping
Unexpected column count (7) for chi — skipping
Unexpected column count (7) for cha — skipping
Unexpected column count (7) for bkn — skipping
Playoff schedule loaded — 106 rows
Player opponent lookup:
# A tibble: 105 × 22
   TeamID     SEASON LeagueID player  NICKNAME PLAYER_SLUG NUM   POSITION HEIGHT
   <chr>      <chr>  <chr>    <chr>   <chr>    <chr>       <chr> <chr>    <chr> 
 1 1610612737 2025   00       Keshon… Keshon   keshon-gil… <NA>  G        6-4   
 2 1610612737 2025   00       RayJ D… RayJ     rayj-dennis 00    G        6-1   
 3 1610612737 2025   00       Jonath… Jonathan jonathan-k… 0     F        6-7   
 4 1610612737 2025   00       Jalen … Jalen    jalen-john… 1     F        6-8   
 5 1610612737 2025   00       Keaton… Keaton   keaton-wal… 2     G        6-3   
 6 1610612737 2025   00       CJ McC… CJ       cj-mccollum 3     G        6-3   
 7 1610612737 2025   00       Gabe V… Gabe     gabe-vince… 4     G        6-2   
 8 1610612737 2025   00       Dyson … Dyson    dyson-dani… 5     G        6-7   
 9 1610612737 2025   00       Nickei… Nickeil  nickeil-al… 7     G        6-5   
10 1610612737 2025   00       Buddy … Buddy    buddy-hield 8     G        6-4   
# ℹ 95 more rows
# ℹ 13 more variables: WEIGHT <chr>, BIRTH_DATE <chr>, AGE <chr>, EXP <chr>,
#   SCHOOL <chr>, PLAYER_ID <chr>, HOW_ACQUIRED <chr>, team_id <chr>,
#   team_abbreviation <chr>, opponent_abbrev <chr>, opponent_name.x <chr>,
#   type_label <chr>, opponent_name.y <chr>
…
Unexpected column count (7) for sac — skipping
Unexpected column count (7) for no — skipping
Unexpected column count (7) for mil — skipping
Unexpected column count (7) for mia — skipping
Unexpected column count (7) for mem — skipping
Unexpected column count (7) for lac — skipping
Unexpected column count (7) for ind — skipping
Unexpected column count (7) for gsw — skipping
Unexpected column count (7) for dal — skipping
Unexpected column count (7) for chi — skipping
Unexpected column count (7) for cha — skipping
Unexpected column count (7) for bkn — skipping
Playoff schedule loaded — 106 rows
Player opponent lookup:
# A tibble: 105 × 22
   TeamID     SEASON LeagueID player  NICKNAME PLAYER_SLUG NUM   POSITION HEIGHT
   <chr>      <chr>  <chr>    <chr>   <chr>    <chr>       <chr> <chr>    <chr> 
 1 1610612737 2025   00       Keshon… Keshon   keshon-gil… <NA>  G        6-4   
 2 1610612737 2025   00       RayJ D… RayJ     rayj-dennis 00    G        6-1   
 3 1610612737 2025   00       Jonath… Jonathan jonathan-k… 0     F        6-7   
 4 1610612737 2025   00       Jalen … Jalen    jalen-john… 1     F        6-8   
 5 1610612737 2025   00       Keaton… Keaton   keaton-wal… 2     G        6-3   
 6 1610612737 2025   00       CJ McC… CJ       cj-mccollum 3     G        6-3   
 7 1610612737 2025   00       Gabe V… Gabe     gabe-vince… 4     G        6-2   
 8 1610612737 2025   00       Dyson … Dyson    dyson-dani… 5     G        6-7   
 9 1610612737 2025   00       Nickei… Nickeil  nickeil-al… 7     G        6-5   
10 1610612737 2025   00       Buddy … Buddy    buddy-hield 8     G        6-4   
# ℹ 95 more rows
# ℹ 13 more variables: WEIGHT <chr>, BIRTH_DATE <chr>, AGE <chr>, EXP <chr>,
#   SCHOOL <chr>, PLAYER_ID <chr>, HOW_ACQUIRED <chr>, team_id <chr>,
#   team_abbreviation <chr>, opponent_abbrev <chr>, opponent_name.x <chr>,
#   type_label <chr>, opponent_name.y <chr>
…
